................
----------------------------------------------------------------------
Ran 16 tests in 0.002s

OK
Name               Stmts   Miss Branch BrPart  Cover   Missing
--------------------------------------------------------------
Diplomacy.py         118      0     34      0   100%
TestDiplomacy.py     162      0      0      0   100%
--------------------------------------------------------------
TOTAL                280      0     34      0   100%
